PoDBAY efficacy estimation
…
PoD curve estimation

Once we have our data prepared function PoDParamEstimation is used to estimate PoD curve parameters in three steps as described above. For more details about the usage of the function see examples in ?PoDParamEstimation().

estimatedParameters <- PoDParamEstimation(diseasedTiters = diseased$titers,
                                          nondiseasedTiters = nondiseased$titers, 
                                          nondiseasedGenerationCount = nondiseased$N,
                                          repeatCount = 50)

Step 1: \(p_{max}^`\), \(et_{50}^`\) and \(\gamma^`\)

Results corresponding to the first step of estimation of PoD-titer relationship can be obtained via estimatedParameters$resultsPriorReset.

#> # A tibble: 50 x 3
#>      pmax slope  et50
#>     <dbl> <dbl> <dbl>
#>  1 0.0343  28.5  6.05
#>  2 0.0343  28.5  6.05
#>  3 0.0343  28.5  6.05
#>  4 0.0343  28.5  6.05
#>  5 0.0343  28.5  6.05
#>  6 0.0343  28.5  6.05
#>  7 0.0343  28.5  6.05
#>  8 0.0343  28.5  6.05
#>  9 0.0343  28.5  6.05
#> 10 0.0343  28.5  6.05
#> # … with 40 more rows

Note that parameter estimates are the same for every repeatCount iteration. This is according to our expectations as the same diseased and non-diseased cases are used in every iteration in step 1 of this example.

Step 2: Bootstrap and re-assignment of disease status Titers of all diseased and all non-diseased subjects are put together and bootstrapped. For each individual titer a probability of disease is calculated using the PoD curve with parameter values \(p_{max}^`\), \(et_{50}^`\) and \(\gamma^`\). New disease status is assigned to each titer based on the probability of disease.

Step 3: \(p^{``}_{max}\), \(et^{``}_{50}\) and \(\gamma^{``}\)

Results corresponding to the third step of Estimation of PoD-titer relationship can be obtained via estimatedParameters$results.

#> # A tibble: 50 x 3
#>      pmax slope  et50
#>     <dbl> <dbl> <dbl>
#>  1 0.0349  31.4  5.89
#>  2 0.0361  26.9  6.37
#>  3 0.0371  28.5  6.01
#>  4 0.0288  28.5  6.31
#>  5 0.0321  33.2  6.02
#>  6 0.0331  27.4  5.98
#>  7 0.0464  16.3  5.66
#>  8 0.0479  17.7  5.69
#>  9 0.0378  28.5  6.01
#> 10 0.0324  29.5  6.07
#> # … with 40 more rows
…
Note: From now on the analysis and used functions are the same as in general case. Only the input variable change from unifected to NondiseasedImmunogenicitySample. The nondiseasedGenerationCount remains the same as the total number of nondiseased remains the same in the whole trial.

Once we have our data prepared, function PoDParamEstimation is used to estimate PoD curve parameters in six steps as described above. For more details about the usage of the function see examples in ?PoDParamEstimation().

estimatedParametersAP <- PoDParamEstimation(diseasedTiters = diseased$titers,
                                            nondiseasedTiters = nondiseasedImmunogenicitySample$titers, 
                                            nondiseasedGenerationCount = nondiseased$N,
                                            repeatCount = 50)

Step 1: \(p_{max}^`\), \(et_{50}^`\) and \(\gamma^`\)

Results corresponding to the first step of Estimation of PoD-titer relationship can be obtained via estimatedParametersAP$resultsPriorReset.

#> # A tibble: 49 x 3
#>      pmax slope  et50
#>     <dbl> <dbl> <dbl>
#>  1 0.0324  34.3  6.05
#>  2 0.0318  34.3  6.08
#>  3 0.0322  34.3  6.08
#>  4 0.0324  34.3  6.08
#>  5 0.0315  34.3  6.10
#>  6 0.0316  34.3  6.07
#>  7 0.0325  34.3  6.09
#>  8 0.0322  34.3  6.10
#>  9 0.0316  34.3  6.09
#> 10 0.0323  34.3  6.07
#> # … with 39 more rows

Note that parameter estimates are now different for each repeatCount iteration. This is according to our expectations as titers of all non-diseased subjects are generated by random sampling with replacement from immunogenicity subset in every iteration in step 1 of this example.

Step 2: Data generation and re-assignment of disease status

Step 3: \(p^{``}_{max}\), \(et^{``}_{50}\) and \(\gamma^{``}\)

Results corresponding to the sixth step of estimation of PoD-titer relationship can be obtained via estimatedParametersAP$results.

#> # A tibble: 49 x 3
#>      pmax slope  et50
#>     <dbl> <dbl> <dbl>
#>  1 0.0347 39.8   5.99
#>  2 0.0231 16.0   5.89
#>  3 0.0351 21.4   5.77
#>  4 0.0419 12.1   5.46
#>  5 0.0301 39.8   6.04
#>  6 0.0483  4.59  3.92
#>  7 0.0393 43.7   5.94
#>  8 0.0386 36.8   6.06
#>  9 0.0314 40.5   6.35
#> 10 0.0263 32.7   6.00
#> # … with 39 more rows
…
