PoDBAY population class
…
vaccinated$getDiseasedCount()
#> [1] 9
vaccinated$getNondiseasedCount()
#> [1] 991
vaccinated$getDiseasedTiters()
#> [1] 3.291161 5.083290 5.032390 3.605223 7.581768 4.333546 3.962850 5.538260
#> [9] 4.949354
as_tibble(vaccinated$getNondiseasedTiters())
#> # A tibble: 991 x 1
#>    value
#>    <dbl>
#>  1  5.23
#>  2  3.16
#>  3 10.2 
#>  4  8.04
#>  5  6.89
#>  6  8.39
#>  7  7.11
#>  8  4.38
#>  9  2.75
#> 10  6.58
#> # … with 981 more rows
…
